%!PS-Adobe-3.0 EPSF-3.0
%%Creator: MATLAB, The Mathworks, Inc. Version 7.10.0.499 (R2010a). Operating System: Microsoft Windows 7.
%%Title: D:\MyDoc\Dropbox\k5\diploma\idaacs\tex\images\filter_graph.eps
%%CreationDate: 05/21/2012  11:17:26
%%DocumentNeededFonts: Helvetica
%%DocumentProcessColors: Cyan Magenta Yellow Black
%%LanguageLevel: 2
%%Pages: 1
%%BoundingBox:   139   228   454   613
%%EndComments

%%BeginProlog
% MathWorks dictionary
/MathWorks 160 dict begin
% definition operators
/bdef {bind def} bind def
/ldef {load def} bind def
/xdef {exch def} bdef
/xstore {exch store} bdef
% operator abbreviations
/c  /clip ldef
/cc /concat ldef
/cp /closepath ldef
/gr /grestore ldef
/gs /gsave ldef
/mt /moveto ldef
/np /newpath ldef
/cm /currentmatrix ldef
/sm /setmatrix ldef
/rm /rmoveto ldef
/rl /rlineto ldef
/s {show newpath} bdef
/sc {setcmykcolor} bdef
/sr /setrgbcolor ldef
/sg /setgray ldef
/w /setlinewidth ldef
/j /setlinejoin ldef
/cap /setlinecap ldef
/rc {rectclip} bdef
/rf {rectfill} bdef
% page state control
/pgsv () def
/bpage {/pgsv save def} bdef
/epage {pgsv restore} bdef
/bplot /gsave ldef
/eplot {stroke grestore} bdef
% orientation switch
/portraitMode 0 def /landscapeMode 1 def /rotateMode 2 def
% coordinate system mappings
/dpi2point 0 def
% font control
/FontSize 0 def
/FMS {/FontSize xstore findfont [FontSize 0 0 FontSize neg 0 0]
  makefont setfont} bdef
/ISOLatin1Encoding where {pop /WindowsLatin1Encoding 256 array bdef
ISOLatin1Encoding WindowsLatin1Encoding copy pop
/.notdef/.notdef/quotesinglbase/florin/quotedblbase/ellipsis/dagger
/daggerdbl/circumflex/perthousand/Scaron/guilsinglleft/OE/.notdef/.notdef
/.notdef/.notdef/quoteleft/quoteright/quotedblleft/quotedblright/bullet
/endash/emdash/tilde/trademark/scaron/guilsinglright/oe/.notdef/.notdef
/Ydieresis WindowsLatin1Encoding 128 32 getinterval astore pop}
{/WindowsLatin1Encoding StandardEncoding bdef} ifelse
/reencode {exch dup where {pop load} {pop StandardEncoding} ifelse
  exch dup 3 1 roll findfont dup length dict begin
  { 1 index /FID ne {def}{pop pop} ifelse } forall
  /Encoding exch def currentdict end definefont pop} bdef
/isroman {findfont /CharStrings get /Agrave known} bdef
/FMSR {3 1 roll 1 index dup isroman {reencode} {pop pop} ifelse
  exch FMS} bdef
/csm {1 dpi2point div -1 dpi2point div scale neg translate
 dup landscapeMode eq {pop -90 rotate}
  {rotateMode eq {90 rotate} if} ifelse} bdef
% line types: solid, dotted, dashed, dotdash
/SO { [] 0 setdash } bdef
/DO { [.5 dpi2point mul 4 dpi2point mul] 0 setdash } bdef
/DA { [6 dpi2point mul] 0 setdash } bdef
/DD { [.5 dpi2point mul 4 dpi2point mul 6 dpi2point mul 4
  dpi2point mul] 0 setdash } bdef
% macros for lines and objects
/L {lineto stroke} bdef
/MP {3 1 roll moveto 1 sub {rlineto} repeat} bdef
/AP {{rlineto} repeat} bdef
/PDlw -1 def
/W {/PDlw currentlinewidth def setlinewidth} def
/PP {closepath eofill} bdef
/DP {closepath stroke} bdef
/MR {4 -2 roll moveto dup  0 exch rlineto exch 0 rlineto
  neg 0 exch rlineto closepath} bdef
/FR {MR stroke} bdef
/PR {MR fill} bdef
/L1i {{currentfile picstr readhexstring pop} image} bdef
/tMatrix matrix def
/MakeOval {newpath tMatrix currentmatrix pop translate scale
0 0 1 0 360 arc tMatrix setmatrix} bdef
/FO {MakeOval stroke} bdef
/PO {MakeOval fill} bdef
/PD {currentlinewidth 2 div 0 360 arc fill
   PDlw -1 eq not {PDlw w /PDlw -1 def} if} def
/FA {newpath tMatrix currentmatrix pop translate scale
  0 0 1 5 -2 roll arc tMatrix setmatrix stroke} bdef
/PA {newpath tMatrix currentmatrix pop	translate 0 0 moveto scale
  0 0 1 5 -2 roll arc closepath tMatrix setmatrix fill} bdef
/FAn {newpath tMatrix currentmatrix pop translate scale
  0 0 1 5 -2 roll arcn tMatrix setmatrix stroke} bdef
/PAn {newpath tMatrix currentmatrix pop translate 0 0 moveto scale
  0 0 1 5 -2 roll arcn closepath tMatrix setmatrix fill} bdef
/vradius 0 def /hradius 0 def /lry 0 def
/lrx 0 def /uly 0 def /ulx 0 def /rad 0 def
/MRR {/vradius xdef /hradius xdef /lry xdef /lrx xdef /uly xdef
  /ulx xdef newpath tMatrix currentmatrix pop ulx hradius add uly
  vradius add translate hradius vradius scale 0 0 1 180 270 arc 
  tMatrix setmatrix lrx hradius sub uly vradius add translate
  hradius vradius scale 0 0 1 270 360 arc tMatrix setmatrix
  lrx hradius sub lry vradius sub translate hradius vradius scale
  0 0 1 0 90 arc tMatrix setmatrix ulx hradius add lry vradius sub
  translate hradius vradius scale 0 0 1 90 180 arc tMatrix setmatrix
  closepath} bdef
/FRR {MRR stroke } bdef
/PRR {MRR fill } bdef
/MlrRR {/lry xdef /lrx xdef /uly xdef /ulx xdef /rad lry uly sub 2 div def
  newpath tMatrix currentmatrix pop ulx rad add uly rad add translate
  rad rad scale 0 0 1 90 270 arc tMatrix setmatrix lrx rad sub lry rad
  sub translate rad rad scale 0 0 1 270 90 arc tMatrix setmatrix
  closepath} bdef
/FlrRR {MlrRR stroke } bdef
/PlrRR {MlrRR fill } bdef
/MtbRR {/lry xdef /lrx xdef /uly xdef /ulx xdef /rad lrx ulx sub 2 div def
  newpath tMatrix currentmatrix pop ulx rad add uly rad add translate
  rad rad scale 0 0 1 180 360 arc tMatrix setmatrix lrx rad sub lry rad
  sub translate rad rad scale 0 0 1 0 180 arc tMatrix setmatrix
  closepath} bdef
/FtbRR {MtbRR stroke } bdef
/PtbRR {MtbRR fill } bdef
/stri 6 array def /dtri 6 array def
/smat 6 array def /dmat 6 array def
/tmat1 6 array def /tmat2 6 array def /dif 3 array def
/asub {/ind2 exch def /ind1 exch def dup dup
  ind1 get exch ind2 get sub exch } bdef
/tri_to_matrix {
  2 0 asub 3 1 asub 4 0 asub 5 1 asub
  dup 0 get exch 1 get 7 -1 roll astore } bdef
/compute_transform {
  dmat dtri tri_to_matrix tmat1 invertmatrix 
  smat stri tri_to_matrix tmat2 concatmatrix } bdef
/ds {stri astore pop} bdef
/dt {dtri astore pop} bdef
/db {2 copy /cols xdef /rows xdef mul dup 3 mul string
  currentfile 
  3 index 0 eq {/ASCIIHexDecode filter}
  {/ASCII85Decode filter 3 index 2 eq {/RunLengthDecode filter} if }
  ifelse exch readstring pop
  dup 0 3 index getinterval /rbmap xdef
  dup 2 index dup getinterval /gbmap xdef
  1 index dup 2 mul exch getinterval /bbmap xdef pop pop}bdef
/it {gs np dtri aload pop moveto lineto lineto cp c
  cols rows 8 compute_transform 
  rbmap gbmap bbmap true 3 colorimage gr}bdef
/il {newpath moveto lineto stroke}bdef
currentdict end def
%%EndProlog

%%BeginSetup
MathWorks begin

0 cap

end
%%EndSetup

%%Page: 1 1
%%BeginPageSetup
%%PageBoundingBox:   139   228   454   613
MathWorks begin
bpage
%%EndPageSetup

%%BeginObject: obj1
bplot

/dpi2point 12 def
portraitMode 1668 7356 csm

    0     0  3783  4610 rc
85 dict begin %Colortable dictionary
/c0 { 0.000000 0.000000 0.000000 sr} bdef
/c1 { 1.000000 1.000000 1.000000 sr} bdef
/c2 { 0.900000 0.000000 0.000000 sr} bdef
/c3 { 0.000000 0.820000 0.000000 sr} bdef
/c4 { 0.000000 0.000000 0.800000 sr} bdef
/c5 { 0.910000 0.820000 0.320000 sr} bdef
/c6 { 1.000000 0.260000 0.820000 sr} bdef
/c7 { 0.000000 0.820000 0.820000 sr} bdef
c0
1 j
1 sg
   0    0 3784 4611 rf
6 w
0 1573 2932 0 0 -1573 492 1919 4 MP
PP
-2932 0 0 1573 2932 0 0 -1573 492 1919 5 MP stroke
4 w
DO
0 sg
 492 1919 mt  492  346 L
 492  346 mt  492  346 L
 980 1919 mt  980  346 L
 980  346 mt  980  346 L
1469 1919 mt 1469  346 L
1469  346 mt 1469  346 L
1958 1919 mt 1958  346 L
1958  346 mt 1958  346 L
2446 1919 mt 2446  346 L
2446  346 mt 2446  346 L
2935 1919 mt 2935  346 L
2935  346 mt 2935  346 L
3424 1919 mt 3424  346 L
3424  346 mt 3424  346 L
 492 1919 mt 3424 1919 L
3424 1919 mt 3424 1919 L
 492 1525 mt 3424 1525 L
3424 1525 mt 3424 1525 L
 492 1132 mt 3424 1132 L
3424 1132 mt 3424 1132 L
 492  739 mt 3424  739 L
3424  739 mt 3424  739 L
 492  346 mt 3424  346 L
3424  346 mt 3424  346 L
SO
6 w
 492  346 mt 3424  346 L
 492 1919 mt 3424 1919 L
3424 1919 mt 3424  346 L
 492 1919 mt  492  346 L
 492 1919 mt 3424 1919 L
 492 1919 mt  492  346 L
 492 1919 mt  492 1889 L
 492  346 mt  492  375 L
%%IncludeResource: font Helvetica
/Helvetica /WindowsLatin1Encoding 120 FMSR

 459 2064 mt 
(0) s
 980 1919 mt  980 1889 L
 980  346 mt  980  375 L
 914 2064 mt 
(10) s
1469 1919 mt 1469 1889 L
1469  346 mt 1469  375 L
1403 2064 mt 
(20) s
1958 1919 mt 1958 1889 L
1958  346 mt 1958  375 L
1892 2064 mt 
(30) s
2446 1919 mt 2446 1889 L
2446  346 mt 2446  375 L
2380 2064 mt 
(40) s
2935 1919 mt 2935 1889 L
2935  346 mt 2935  375 L
2869 2064 mt 
(50) s
3424 1919 mt 3424 1889 L
3424  346 mt 3424  375 L
3358 2064 mt 
(60) s
 492 1919 mt  521 1919 L
3424 1919 mt 3394 1919 L
 321 1963 mt 
(-1) s
 492 1525 mt  521 1525 L
3424 1525 mt 3394 1525 L
 221 1569 mt 
(-0.5) s
 492 1132 mt  521 1132 L
3424 1132 mt 3394 1132 L
 391 1176 mt 
(0) s
 492  739 mt  521  739 L
3424  739 mt 3394  739 L
 291  783 mt 
(0.5) s
 492  346 mt  521  346 L
3424  346 mt 3394  346 L
 391  390 mt 
(1) s
 492  346 mt 3424  346 L
 492 1919 mt 3424 1919 L
3424 1919 mt 3424  346 L
 492 1919 mt  492  346 L
gs 492 346 2933 1574 rc
/c8 { 0.000000 0.000000 1.000000 sr} bdef
c8
49 0 49 -363 49 0 49 0 49 0 49 0 49 0 48 363 
49 0 49 0 49 725 49 0 49 0 49 -725 48 0 49 0 
49 0 49 0 49 0 49 363 49 0 49 0 48 -363 49 0 
49 0 49 725 49 0 49 0 49 -362 48 0 49 0 49 -363 
49 0 49 0 49 -725 49 0 49 0 48 362 49 0 49 0 
49 0 49 0 49 0 49 363 48 0 49 0 49 363 49 0 
49 0 49 0 49 0 49 0 48 -363 49 0 49 0 49 363 
49 0 49 0 49 -726 540 1495 60 MP stroke
/c9 { 0.000000 0.500000 0.000000 sr} bdef
c9
49 -82 49 -136 49 15 49 25 49 42 49 70 49 117 48 194 
49 83 49 137 49 229 49 -103 49 -170 49 -284 48 9 49 17 
49 27 49 45 49 75 49 125 49 -33 49 -54 48 -91 49 89 
49 150 49 249 49 -67 49 -113 49 -189 48 -72 49 -120 49 -201 
49 -92 49 -154 49 -257 49 55 49 92 48 153 49 14 49 22 
49 38 49 63 49 105 49 175 48 50 49 84 49 139 49 -10 
49 -16 49 -27 49 -46 49 -75 48 -125 49 32 49 54 49 90 
49 -92 49 -153 49 -255 540 1407 60 MP stroke
gr

c9
  36   36  540 1407 FO
  36   36  589 1152 FO
  36   36  638  999 FO
  36   36  687  907 FO
  36   36  736  997 FO
  36   36  785 1051 FO
  36   36  834 1083 FO
  36   36  882  958 FO
  36   36  931  883 FO
  36   36  980  837 FO
  36   36 1029  810 FO
  36   36 1078  794 FO
  36   36 1127  784 FO
  36   36 1176  923 FO
  36   36 1225 1007 FO
  36   36 1273 1057 FO
  36   36 1322 1232 FO
  36   36 1371 1337 FO
  36   36 1420 1400 FO
  36   36 1469 1438 FO
  36   36 1518 1460 FO
  36   36 1567 1474 FO
  36   36 1615 1627 FO
  36   36 1664 1719 FO
  36   36 1713 1774 FO
  36   36 1762 1517 FO
  36   36 1811 1363 FO
  36   36 1860 1271 FO
  36   36 1909 1070 FO
  36   36 1958  950 FO
  36   36 2006  878 FO
  36   36 2055  689 FO
  36   36 2104  576 FO
  36   36 2153  509 FO
  36   36 2202  758 FO
  36   36 2251  908 FO
  36   36 2300  997 FO
  36   36 2348  906 FO
  36   36 2397  852 FO
  36   36 2446  819 FO
  36   36 2495  944 FO
  36   36 2544 1019 FO
  36   36 2593 1064 FO
  36   36 2642 1091 FO
  36   36 2691 1108 FO
  36   36 2739 1117 FO
  36   36 2788  833 FO
  36   36 2837  663 FO
  36   36 2886  560 FO
  36   36 2935  789 FO
  36   36 2984  926 FO
  36   36 3033 1009 FO
  36   36 3081 1203 FO
  36   36 3130 1320 FO
  36   36 3179 1390 FO
  36   36 3228 1432 FO
  36   36 3277 1457 FO
  36   36 3326 1472 FO
  36   36 3375 1336 FO
  36   36 3424 1254 FO
gs 492 346 2933 1574 rc
/c10 { 1.000000 0.000000 0.000000 sr} bdef
c10
49 0 49 0 49 0 49 0 49 0 49 0 49 0 48 0 
49 0 49 0 49 0 49 0 49 0 49 0 48 0 49 0 
49 0 49 0 49 0 49 0 49 0 49 0 48 0 49 0 
49 0 49 0 49 0 49 0 49 0 48 0 49 0 49 0 
49 0 49 0 49 0 49 0 49 0 48 0 49 0 49 0 
49 0 49 0 49 0 49 0 48 0 49 0 49 0 49 0 
49 0 49 0 49 0 49 0 48 0 49 0 49 0 49 0 
49 0 49 0 49 0 540 1132 60 MP stroke
gr

c10
 504 1132 mt  576 1132 L
 540 1096 mt  540 1168 L
 553 1132 mt  625 1132 L
 589 1096 mt  589 1168 L
 602 1132 mt  674 1132 L
 638 1096 mt  638 1168 L
 651 1132 mt  723 1132 L
 687 1096 mt  687 1168 L
 700 1132 mt  772 1132 L
 736 1096 mt  736 1168 L
 749 1132 mt  821 1132 L
 785 1096 mt  785 1168 L
 798 1132 mt  870 1132 L
 834 1096 mt  834 1168 L
 846 1132 mt  918 1132 L
 882 1096 mt  882 1168 L
 895 1132 mt  967 1132 L
 931 1096 mt  931 1168 L
 944 1132 mt 1016 1132 L
 980 1096 mt  980 1168 L
 993 1132 mt 1065 1132 L
1029 1096 mt 1029 1168 L
1042 1132 mt 1114 1132 L
1078 1096 mt 1078 1168 L
1091 1132 mt 1163 1132 L
1127 1096 mt 1127 1168 L
1140 1132 mt 1212 1132 L
1176 1096 mt 1176 1168 L
1189 1132 mt 1261 1132 L
1225 1096 mt 1225 1168 L
1237 1132 mt 1309 1132 L
1273 1096 mt 1273 1168 L
1286 1132 mt 1358 1132 L
1322 1096 mt 1322 1168 L
1335 1132 mt 1407 1132 L
1371 1096 mt 1371 1168 L
1384 1132 mt 1456 1132 L
1420 1096 mt 1420 1168 L
1433 1132 mt 1505 1132 L
1469 1096 mt 1469 1168 L
1482 1132 mt 1554 1132 L
1518 1096 mt 1518 1168 L
1531 1132 mt 1603 1132 L
1567 1096 mt 1567 1168 L
1579 1132 mt 1651 1132 L
1615 1096 mt 1615 1168 L
1628 1132 mt 1700 1132 L
1664 1096 mt 1664 1168 L
1677 1132 mt 1749 1132 L
1713 1096 mt 1713 1168 L
1726 1132 mt 1798 1132 L
1762 1096 mt 1762 1168 L
1775 1132 mt 1847 1132 L
1811 1096 mt 1811 1168 L
1824 1132 mt 1896 1132 L
1860 1096 mt 1860 1168 L
1873 1132 mt 1945 1132 L
1909 1096 mt 1909 1168 L
1922 1132 mt 1994 1132 L
1958 1096 mt 1958 1168 L
1970 1132 mt 2042 1132 L
2006 1096 mt 2006 1168 L
2019 1132 mt 2091 1132 L
2055 1096 mt 2055 1168 L
2068 1132 mt 2140 1132 L
2104 1096 mt 2104 1168 L
2117 1132 mt 2189 1132 L
2153 1096 mt 2153 1168 L
2166 1132 mt 2238 1132 L
2202 1096 mt 2202 1168 L
2215 1132 mt 2287 1132 L
2251 1096 mt 2251 1168 L
2264 1132 mt 2336 1132 L
2300 1096 mt 2300 1168 L
2312 1132 mt 2384 1132 L
2348 1096 mt 2348 1168 L
2361 1132 mt 2433 1132 L
2397 1096 mt 2397 1168 L
2410 1132 mt 2482 1132 L
2446 1096 mt 2446 1168 L
2459 1132 mt 2531 1132 L
2495 1096 mt 2495 1168 L
2508 1132 mt 2580 1132 L
2544 1096 mt 2544 1168 L
2557 1132 mt 2629 1132 L
2593 1096 mt 2593 1168 L
2606 1132 mt 2678 1132 L
2642 1096 mt 2642 1168 L
2655 1132 mt 2727 1132 L
2691 1096 mt 2691 1168 L
2703 1132 mt 2775 1132 L
2739 1096 mt 2739 1168 L
2752 1132 mt 2824 1132 L
2788 1096 mt 2788 1168 L
2801 1132 mt 2873 1132 L
2837 1096 mt 2837 1168 L
2850 1132 mt 2922 1132 L
2886 1096 mt 2886 1168 L
2899 1132 mt 2971 1132 L
2935 1096 mt 2935 1168 L
2948 1132 mt 3020 1132 L
2984 1096 mt 2984 1168 L
2997 1132 mt 3069 1132 L
3033 1096 mt 3033 1168 L
3045 1132 mt 3117 1132 L
3081 1096 mt 3081 1168 L
3094 1132 mt 3166 1132 L
3130 1096 mt 3130 1168 L
3143 1132 mt 3215 1132 L
3179 1096 mt 3179 1168 L
3192 1132 mt 3264 1132 L
3228 1096 mt 3228 1168 L
3241 1132 mt 3313 1132 L
3277 1096 mt 3277 1168 L
3290 1132 mt 3362 1132 L
3326 1096 mt 3326 1168 L
3339 1132 mt 3411 1132 L
3375 1096 mt 3375 1168 L
3388 1132 mt 3460 1132 L
3424 1096 mt 3424 1168 L
 515 1107 mt  565 1157 L
 565 1107 mt  515 1157 L
 564 1107 mt  614 1157 L
 614 1107 mt  564 1157 L
 613 1107 mt  663 1157 L
 663 1107 mt  613 1157 L
 662 1107 mt  712 1157 L
 712 1107 mt  662 1157 L
 711 1107 mt  761 1157 L
 761 1107 mt  711 1157 L
 760 1107 mt  810 1157 L
 810 1107 mt  760 1157 L
 809 1107 mt  859 1157 L
 859 1107 mt  809 1157 L
 857 1107 mt  907 1157 L
 907 1107 mt  857 1157 L
 906 1107 mt  956 1157 L
 956 1107 mt  906 1157 L
 955 1107 mt 1005 1157 L
1005 1107 mt  955 1157 L
1004 1107 mt 1054 1157 L
1054 1107 mt 1004 1157 L
1053 1107 mt 1103 1157 L
1103 1107 mt 1053 1157 L
1102 1107 mt 1152 1157 L
1152 1107 mt 1102 1157 L
1151 1107 mt 1201 1157 L
1201 1107 mt 1151 1157 L
1200 1107 mt 1250 1157 L
1250 1107 mt 1200 1157 L
1248 1107 mt 1298 1157 L
1298 1107 mt 1248 1157 L
1297 1107 mt 1347 1157 L
1347 1107 mt 1297 1157 L
1346 1107 mt 1396 1157 L
1396 1107 mt 1346 1157 L
1395 1107 mt 1445 1157 L
1445 1107 mt 1395 1157 L
1444 1107 mt 1494 1157 L
1494 1107 mt 1444 1157 L
1493 1107 mt 1543 1157 L
1543 1107 mt 1493 1157 L
1542 1107 mt 1592 1157 L
1592 1107 mt 1542 1157 L
1590 1107 mt 1640 1157 L
1640 1107 mt 1590 1157 L
1639 1107 mt 1689 1157 L
1689 1107 mt 1639 1157 L
1688 1107 mt 1738 1157 L
1738 1107 mt 1688 1157 L
1737 1107 mt 1787 1157 L
1787 1107 mt 1737 1157 L
1786 1107 mt 1836 1157 L
1836 1107 mt 1786 1157 L
1835 1107 mt 1885 1157 L
1885 1107 mt 1835 1157 L
1884 1107 mt 1934 1157 L
1934 1107 mt 1884 1157 L
1933 1107 mt 1983 1157 L
1983 1107 mt 1933 1157 L
1981 1107 mt 2031 1157 L
2031 1107 mt 1981 1157 L
2030 1107 mt 2080 1157 L
2080 1107 mt 2030 1157 L
2079 1107 mt 2129 1157 L
2129 1107 mt 2079 1157 L
2128 1107 mt 2178 1157 L
2178 1107 mt 2128 1157 L
2177 1107 mt 2227 1157 L
2227 1107 mt 2177 1157 L
2226 1107 mt 2276 1157 L
2276 1107 mt 2226 1157 L
2275 1107 mt 2325 1157 L
2325 1107 mt 2275 1157 L
2323 1107 mt 2373 1157 L
2373 1107 mt 2323 1157 L
2372 1107 mt 2422 1157 L
2422 1107 mt 2372 1157 L
2421 1107 mt 2471 1157 L
2471 1107 mt 2421 1157 L
2470 1107 mt 2520 1157 L
2520 1107 mt 2470 1157 L
2519 1107 mt 2569 1157 L
2569 1107 mt 2519 1157 L
2568 1107 mt 2618 1157 L
2618 1107 mt 2568 1157 L
2617 1107 mt 2667 1157 L
2667 1107 mt 2617 1157 L
2666 1107 mt 2716 1157 L
2716 1107 mt 2666 1157 L
2714 1107 mt 2764 1157 L
2764 1107 mt 2714 1157 L
2763 1107 mt 2813 1157 L
2813 1107 mt 2763 1157 L
2812 1107 mt 2862 1157 L
2862 1107 mt 2812 1157 L
2861 1107 mt 2911 1157 L
2911 1107 mt 2861 1157 L
2910 1107 mt 2960 1157 L
2960 1107 mt 2910 1157 L
2959 1107 mt 3009 1157 L
3009 1107 mt 2959 1157 L
3008 1107 mt 3058 1157 L
3058 1107 mt 3008 1157 L
3056 1107 mt 3106 1157 L
3106 1107 mt 3056 1157 L
3105 1107 mt 3155 1157 L
3155 1107 mt 3105 1157 L
3154 1107 mt 3204 1157 L
3204 1107 mt 3154 1157 L
3203 1107 mt 3253 1157 L
3253 1107 mt 3203 1157 L
3252 1107 mt 3302 1157 L
3302 1107 mt 3252 1157 L
3301 1107 mt 3351 1157 L
3351 1107 mt 3301 1157 L
3350 1107 mt 3400 1157 L
3400 1107 mt 3350 1157 L
3399 1107 mt 3449 1157 L
3449 1107 mt 3399 1157 L
gs 492 346 2933 1574 rc
gr

0 sg
1754 2207 mt 
(Sample) s
 139 1592 mt  -90 rotate
(Signal level, m/s) s
90 rotate
%%IncludeResource: font Helvetica
/Helvetica /WindowsLatin1Encoding 96 FMSR

  79  725 mt  -90 rotate
(2) s
90 rotate
%%IncludeResource: font Helvetica
/Helvetica /WindowsLatin1Encoding 120 FMSR

 974  251 mt 
(Accelerometer signal filtration, axis X) s
 457 1980 mt 
( ) s
3390  406 mt 
( ) s
1 sg
0 546 1674 0 0 -546 536 1798 4 MP
PP
-1674 0 0 546 1674 0 0 -546 536 1798 5 MP stroke
4 w
DO
SO
6 w
0 sg
 536 1252 mt 2210 1252 L
 536 1798 mt 2210 1798 L
2210 1798 mt 2210 1252 L
 536 1798 mt  536 1252 L
 536 1798 mt 2210 1798 L
 536 1798 mt  536 1252 L
 536 1252 mt 2210 1252 L
 536 1798 mt 2210 1798 L
2210 1798 mt 2210 1252 L
 536 1798 mt  536 1252 L
1015 1399 mt 
(Raw data) s
gs 536 1252 1675 547 rc
c8
368 0 609 1357 2 MP stroke
gr

c8
0 sg
1015 1568 mt 
(Low-pass filter output) s
gs 536 1252 1675 547 rc
c9
368 0 609 1525 2 MP stroke
gs 720 1452 147 147 rc
  36   36  793 1525 FO
gr

gr

c9
0 sg
1015 1736 mt 
(Threshold filter output) s
gs 536 1252 1675 547 rc
c10
368 0 609 1693 2 MP stroke
gs 720 1620 147 147 rc
 757 1693 mt  829 1693 L
 793 1657 mt  793 1729 L
 768 1668 mt  818 1718 L
 818 1668 mt  768 1718 L
gr

gr

c10
1 sg
0 1573 2932 0 0 -1573 492 4103 4 MP
PP
-2932 0 0 1573 2932 0 0 -1573 492 4103 5 MP stroke
4 w
DO
0 sg
 492 4103 mt  492 2530 L
 492 2530 mt  492 2530 L
 980 4103 mt  980 2530 L
 980 2530 mt  980 2530 L
1469 4103 mt 1469 2530 L
1469 2530 mt 1469 2530 L
1958 4103 mt 1958 2530 L
1958 2530 mt 1958 2530 L
2446 4103 mt 2446 2530 L
2446 2530 mt 2446 2530 L
2935 4103 mt 2935 2530 L
2935 2530 mt 2935 2530 L
3424 4103 mt 3424 2530 L
3424 2530 mt 3424 2530 L
 492 4103 mt 3424 4103 L
3424 4103 mt 3424 4103 L
 492 3788 mt 3424 3788 L
3424 3788 mt 3424 3788 L
 492 3473 mt 3424 3473 L
3424 3473 mt 3424 3473 L
 492 3159 mt 3424 3159 L
3424 3159 mt 3424 3159 L
 492 2844 mt 3424 2844 L
3424 2844 mt 3424 2844 L
 492 2530 mt 3424 2530 L
3424 2530 mt 3424 2530 L
SO
6 w
 492 2530 mt 3424 2530 L
 492 4103 mt 3424 4103 L
3424 4103 mt 3424 2530 L
 492 4103 mt  492 2530 L
 492 4103 mt 3424 4103 L
 492 4103 mt  492 2530 L
 492 4103 mt  492 4073 L
 492 2530 mt  492 2559 L
 459 4248 mt 
(0) s
 980 4103 mt  980 4073 L
 980 2530 mt  980 2559 L
 914 4248 mt 
(10) s
1469 4103 mt 1469 4073 L
1469 2530 mt 1469 2559 L
1403 4248 mt 
(20) s
1958 4103 mt 1958 4073 L
1958 2530 mt 1958 2559 L
1892 4248 mt 
(30) s
2446 4103 mt 2446 4073 L
2446 2530 mt 2446 2559 L
2380 4248 mt 
(40) s
2935 4103 mt 2935 4073 L
2935 2530 mt 2935 2559 L
2869 4248 mt 
(50) s
3424 4103 mt 3424 4073 L
3424 2530 mt 3424 2559 L
3358 4248 mt 
(60) s
 492 4103 mt  521 4103 L
3424 4103 mt 3394 4103 L
 254 4147 mt 
(-10) s
 492 3788 mt  521 3788 L
3424 3788 mt 3394 3788 L
 321 3832 mt 
(-5) s
 492 3473 mt  521 3473 L
3424 3473 mt 3394 3473 L
 391 3517 mt 
(0) s
 492 3159 mt  521 3159 L
3424 3159 mt 3394 3159 L
 391 3203 mt 
(5) s
 492 2844 mt  521 2844 L
3424 2844 mt 3394 2844 L
 324 2888 mt 
(10) s
 492 2530 mt  521 2530 L
3424 2530 mt 3394 2530 L
 324 2574 mt 
(15) s
 492 2530 mt 3424 2530 L
 492 4103 mt 3424 4103 L
3424 4103 mt 3424 2530 L
 492 4103 mt  492 2530 L
gs 492 2530 2933 1574 rc
c8
49 0 49 29 49 0 49 0 49 87 49 0 49 0 48 261 
49 0 49 0 49 319 49 0 49 0 49 203 48 0 49 0 
49 58 49 0 49 0 49 29 49 0 49 0 48 -87 49 0 
49 0 49 -58 49 0 49 0 49 -290 48 0 49 0 49 -232 
49 0 49 0 49 -232 49 0 49 0 48 -29 49 0 49 0 
49 87 49 0 49 0 49 174 48 0 49 0 49 203 49 0 
49 0 49 290 49 0 49 0 48 174 49 0 49 0 49 -58 
49 0 49 0 49 0 540 2893 60 MP stroke
c9
49 15 49 25 49 23 49 39 49 64 49 49 49 82 48 136 
49 52 49 88 49 146 49 31 49 52 49 86 48 9 49 14 
49 24 49 0 49 1 49 2 49 -17 49 -28 48 -46 49 -19 
49 -33 49 -53 49 -51 49 -84 49 -140 48 -41 49 -68 49 -112 
49 -34 49 -55 49 -93 49 0 49 0 48 0 49 20 49 33 
49 55 49 34 49 55 49 94 48 39 49 66 49 109 49 47 
49 77 49 130 49 23 49 38 48 64 49 -9 49 -16 49 -27 
49 -6 49 -9 49 -17 540 2934 60 MP stroke
gr

c9
  36   36  540 2934 FO
  36   36  589 2917 FO
  36   36  638 2908 FO
  36   36  687 2902 FO
  36   36  736 2875 FO
  36   36  785 2859 FO
  36   36  834 2850 FO
  36   36  882 2914 FO
  36   36  931 2952 FO
  36   36  980 2975 FO
  36   36 1029 3105 FO
  36   36 1078 3182 FO
  36   36 1127 3229 FO
  36   36 1176 3338 FO
  36   36 1225 3404 FO
  36   36 1273 3443 FO
  36   36 1322 3537 FO
  36   36 1371 3592 FO
  36   36 1420 3626 FO
  36   36 1469 3681 FO
  36   36 1518 3714 FO
  36   36 1567 3734 FO
  36   36 1615 3734 FO
  36   36 1664 3734 FO
  36   36 1713 3734 FO
  36   36 1762 3641 FO
  36   36 1811 3586 FO
  36   36 1860 3552 FO
  36   36 1909 3440 FO
  36   36 1958 3372 FO
  36   36 2006 3331 FO
  36   36 2055 3191 FO
  36   36 2104 3107 FO
  36   36 2153 3056 FO
  36   36 2202 3003 FO
  36   36 2251 2970 FO
  36   36 2300 2951 FO
  36   36 2348 2905 FO
  36   36 2397 2877 FO
  36   36 2446 2860 FO
  36   36 2495 2862 FO
  36   36 2544 2863 FO
  36   36 2593 2863 FO
  36   36 2642 2887 FO
  36   36 2691 2901 FO
  36   36 2739 2910 FO
  36   36 2788 2996 FO
  36   36 2837 3048 FO
  36   36 2886 3079 FO
  36   36 2935 3225 FO
  36   36 2984 3313 FO
  36   36 3033 3365 FO
  36   36 3081 3501 FO
  36   36 3130 3583 FO
  36   36 3179 3632 FO
  36   36 3228 3696 FO
  36   36 3277 3735 FO
  36   36 3326 3758 FO
  36   36 3375 3783 FO
  36   36 3424 3798 FO
gs 492 2530 2933 1574 rc
c10
49 63 49 0 49 0 49 63 49 63 49 63 49 63 48 63 
49 125 49 0 49 252 49 0 49 0 49 126 48 0 49 0 
49 0 49 0 49 0 49 0 49 0 49 0 48 -63 49 -63 
49 0 49 -63 49 -63 49 -63 49 -125 48 -63 49 -63 49 -126 
49 0 49 0 49 -126 49 0 49 0 48 0 49 63 49 0 
49 63 49 63 49 0 49 126 48 0 49 63 49 62 49 126 
49 0 49 126 49 126 49 0 48 0 49 0 49 0 49 0 
49 -63 49 0 49 0 540 2970 60 MP stroke
gr

c10
 504 2970 mt  576 2970 L
 540 2934 mt  540 3006 L
 553 2970 mt  625 2970 L
 589 2934 mt  589 3006 L
 602 2970 mt  674 2970 L
 638 2934 mt  638 3006 L
 651 2907 mt  723 2907 L
 687 2871 mt  687 2943 L
 700 2907 mt  772 2907 L
 736 2871 mt  736 2943 L
 749 2907 mt  821 2907 L
 785 2871 mt  785 2943 L
 798 2907 mt  870 2907 L
 834 2871 mt  834 2943 L
 846 2907 mt  918 2907 L
 882 2871 mt  882 2943 L
 895 2907 mt  967 2907 L
 931 2871 mt  931 2943 L
 944 3033 mt 1016 3033 L
 980 2997 mt  980 3069 L
 993 3159 mt 1065 3159 L
1029 3123 mt 1029 3195 L
1042 3159 mt 1114 3159 L
1078 3123 mt 1078 3195 L
1091 3285 mt 1163 3285 L
1127 3249 mt 1127 3321 L
1140 3347 mt 1212 3347 L
1176 3311 mt 1176 3383 L
1189 3410 mt 1261 3410 L
1225 3374 mt 1225 3446 L
1237 3410 mt 1309 3410 L
1273 3374 mt 1273 3446 L
1286 3536 mt 1358 3536 L
1322 3500 mt 1322 3572 L
1335 3536 mt 1407 3536 L
1371 3500 mt 1371 3572 L
1384 3599 mt 1456 3599 L
1420 3563 mt 1420 3635 L
1433 3662 mt 1505 3662 L
1469 3626 mt 1469 3698 L
1482 3662 mt 1554 3662 L
1518 3626 mt 1518 3698 L
1531 3725 mt 1603 3725 L
1567 3689 mt 1567 3761 L
1579 3725 mt 1651 3725 L
1615 3689 mt 1615 3761 L
1628 3725 mt 1700 3725 L
1664 3689 mt 1664 3761 L
1677 3725 mt 1749 3725 L
1713 3689 mt 1713 3761 L
1726 3599 mt 1798 3599 L
1762 3563 mt 1762 3635 L
1775 3599 mt 1847 3599 L
1811 3563 mt 1811 3635 L
1824 3599 mt 1896 3599 L
1860 3563 mt 1860 3635 L
1873 3473 mt 1945 3473 L
1909 3437 mt 1909 3509 L
1922 3410 mt 1994 3410 L
1958 3374 mt 1958 3446 L
1970 3347 mt 2042 3347 L
2006 3311 mt 2006 3383 L
2019 3222 mt 2091 3222 L
2055 3186 mt 2055 3258 L
2068 3159 mt 2140 3159 L
2104 3123 mt 2104 3195 L
2117 3096 mt 2189 3096 L
2153 3060 mt 2153 3132 L
2166 3033 mt 2238 3033 L
2202 2997 mt 2202 3069 L
2215 3033 mt 2287 3033 L
2251 2997 mt 2251 3069 L
2264 2970 mt 2336 2970 L
2300 2934 mt 2300 3006 L
2312 2907 mt 2384 2907 L
2348 2871 mt 2348 2943 L
2361 2907 mt 2433 2907 L
2397 2871 mt 2397 2943 L
2410 2907 mt 2482 2907 L
2446 2871 mt 2446 2943 L
2459 2907 mt 2531 2907 L
2495 2871 mt 2495 2943 L
2508 2907 mt 2580 2907 L
2544 2871 mt 2544 2943 L
2557 2907 mt 2629 2907 L
2593 2871 mt 2593 2943 L
2606 2907 mt 2678 2907 L
2642 2871 mt 2642 2943 L
2655 2907 mt 2727 2907 L
2691 2871 mt 2691 2943 L
2703 2907 mt 2775 2907 L
2739 2871 mt 2739 2943 L
2752 3033 mt 2824 3033 L
2788 2997 mt 2788 3069 L
2801 3033 mt 2873 3033 L
2837 2997 mt 2837 3069 L
2850 3033 mt 2922 3033 L
2886 2997 mt 2886 3069 L
2899 3285 mt 2971 3285 L
2935 3249 mt 2935 3321 L
2948 3285 mt 3020 3285 L
2984 3249 mt 2984 3321 L
2997 3410 mt 3069 3410 L
3033 3374 mt 3033 3446 L
3045 3473 mt 3117 3473 L
3081 3437 mt 3081 3509 L
3094 3536 mt 3166 3536 L
3130 3500 mt 3130 3572 L
3143 3599 mt 3215 3599 L
3179 3563 mt 3179 3635 L
3192 3662 mt 3264 3662 L
3228 3626 mt 3228 3698 L
3241 3725 mt 3313 3725 L
3277 3689 mt 3277 3761 L
3290 3725 mt 3362 3725 L
3326 3689 mt 3326 3761 L
3339 3725 mt 3411 3725 L
3375 3689 mt 3375 3761 L
3388 3788 mt 3460 3788 L
3424 3752 mt 3424 3824 L
 515 2945 mt  565 2995 L
 565 2945 mt  515 2995 L
 564 2945 mt  614 2995 L
 614 2945 mt  564 2995 L
 613 2945 mt  663 2995 L
 663 2945 mt  613 2995 L
 662 2882 mt  712 2932 L
 712 2882 mt  662 2932 L
 711 2882 mt  761 2932 L
 761 2882 mt  711 2932 L
 760 2882 mt  810 2932 L
 810 2882 mt  760 2932 L
 809 2882 mt  859 2932 L
 859 2882 mt  809 2932 L
 857 2882 mt  907 2932 L
 907 2882 mt  857 2932 L
 906 2882 mt  956 2932 L
 956 2882 mt  906 2932 L
 955 3008 mt 1005 3058 L
1005 3008 mt  955 3058 L
1004 3134 mt 1054 3184 L
1054 3134 mt 1004 3184 L
1053 3134 mt 1103 3184 L
1103 3134 mt 1053 3184 L
1102 3260 mt 1152 3310 L
1152 3260 mt 1102 3310 L
1151 3322 mt 1201 3372 L
1201 3322 mt 1151 3372 L
1200 3385 mt 1250 3435 L
1250 3385 mt 1200 3435 L
1248 3385 mt 1298 3435 L
1298 3385 mt 1248 3435 L
1297 3511 mt 1347 3561 L
1347 3511 mt 1297 3561 L
1346 3511 mt 1396 3561 L
1396 3511 mt 1346 3561 L
1395 3574 mt 1445 3624 L
1445 3574 mt 1395 3624 L
1444 3637 mt 1494 3687 L
1494 3637 mt 1444 3687 L
1493 3637 mt 1543 3687 L
1543 3637 mt 1493 3687 L
1542 3700 mt 1592 3750 L
1592 3700 mt 1542 3750 L
1590 3700 mt 1640 3750 L
1640 3700 mt 1590 3750 L
1639 3700 mt 1689 3750 L
1689 3700 mt 1639 3750 L
1688 3700 mt 1738 3750 L
1738 3700 mt 1688 3750 L
1737 3574 mt 1787 3624 L
1787 3574 mt 1737 3624 L
1786 3574 mt 1836 3624 L
1836 3574 mt 1786 3624 L
1835 3574 mt 1885 3624 L
1885 3574 mt 1835 3624 L
1884 3448 mt 1934 3498 L
1934 3448 mt 1884 3498 L
1933 3385 mt 1983 3435 L
1983 3385 mt 1933 3435 L
1981 3322 mt 2031 3372 L
2031 3322 mt 1981 3372 L
2030 3197 mt 2080 3247 L
2080 3197 mt 2030 3247 L
2079 3134 mt 2129 3184 L
2129 3134 mt 2079 3184 L
2128 3071 mt 2178 3121 L
2178 3071 mt 2128 3121 L
2177 3008 mt 2227 3058 L
2227 3008 mt 2177 3058 L
2226 3008 mt 2276 3058 L
2276 3008 mt 2226 3058 L
2275 2945 mt 2325 2995 L
2325 2945 mt 2275 2995 L
2323 2882 mt 2373 2932 L
2373 2882 mt 2323 2932 L
2372 2882 mt 2422 2932 L
2422 2882 mt 2372 2932 L
2421 2882 mt 2471 2932 L
2471 2882 mt 2421 2932 L
2470 2882 mt 2520 2932 L
2520 2882 mt 2470 2932 L
2519 2882 mt 2569 2932 L
2569 2882 mt 2519 2932 L
2568 2882 mt 2618 2932 L
2618 2882 mt 2568 2932 L
2617 2882 mt 2667 2932 L
2667 2882 mt 2617 2932 L
2666 2882 mt 2716 2932 L
2716 2882 mt 2666 2932 L
2714 2882 mt 2764 2932 L
2764 2882 mt 2714 2932 L
2763 3008 mt 2813 3058 L
2813 3008 mt 2763 3058 L
2812 3008 mt 2862 3058 L
2862 3008 mt 2812 3058 L
2861 3008 mt 2911 3058 L
2911 3008 mt 2861 3058 L
2910 3260 mt 2960 3310 L
2960 3260 mt 2910 3310 L
2959 3260 mt 3009 3310 L
3009 3260 mt 2959 3310 L
3008 3385 mt 3058 3435 L
3058 3385 mt 3008 3435 L
3056 3448 mt 3106 3498 L
3106 3448 mt 3056 3498 L
3105 3511 mt 3155 3561 L
3155 3511 mt 3105 3561 L
3154 3574 mt 3204 3624 L
3204 3574 mt 3154 3624 L
3203 3637 mt 3253 3687 L
3253 3637 mt 3203 3687 L
3252 3700 mt 3302 3750 L
3302 3700 mt 3252 3750 L
3301 3700 mt 3351 3750 L
3351 3700 mt 3301 3750 L
3350 3700 mt 3400 3750 L
3400 3700 mt 3350 3750 L
3399 3763 mt 3449 3813 L
3449 3763 mt 3399 3813 L
gs 492 2530 2933 1574 rc
gr

0 sg
1754 4391 mt 
(Sample) s
 172 3776 mt  -90 rotate
(Signal level, m/s) s
90 rotate
%%IncludeResource: font Helvetica
/Helvetica /WindowsLatin1Encoding 96 FMSR

 112 2909 mt  -90 rotate
(2) s
90 rotate
%%IncludeResource: font Helvetica
/Helvetica /WindowsLatin1Encoding 120 FMSR

 979 2435 mt 
(Accelerometer signal filtration, axis Y) s

end %%Color Dict

eplot
%%EndObject

epage
end

showpage

%%Trailer
%%EOF
